src/MultiplyAndAccumulate/mult_accumulate.vcd
$date
     Mar 17, 2020       18:09:43
$end

$version
              SystemC 2.3.0_pub_rev_20111121-OSCI --- Mar 13 2020 11:21:03
$end

$timescale
     1 ps
$end

$scope module SystemC $end
$var wire    1  aaa  enable       $end
$var wire    8  aab  pixel [7:0]  $end
$var wire    1  aac  reset       $end
$var wire    1  aad  clk       $end
$var wire    8  aae  partialS [7:0]  $end
$var wire    8  aaf  output [7:0]  $end
$upscope $end
$enddefinitions  $end

$comment
All initial values are dumped below at time 0 sec = 0 timescale units.
$end

$dumpvars
1aaa
b0 aab
0aac
0aad
b0 aae
b0 aaf
$end

#1000
1aad

#2000
b1 aab
0aad

#3000
1aad
b11 aaf

#4000
0aad
b1 aae

#5000
1aad
b100 aaf

#6000
0aad
b10 aae

#7000
1aad
b101 aaf

#8000
0aad
b11 aae

#9000
1aad
b110 aaf

#10000
0aad
b100 aae

#11000
1aad
b111 aaf

#12000
0aad
b101 aae

#13000
1aad
b1000 aaf

#14000
0aad
b110 aae

#15000
1aad
b1001 aaf

#16000
0aad
b111 aae

#17000
1aad
b1010 aaf

#18000
0aad
b1000 aae

#19000
1aad
b1011 aaf

#20000
0aad
b1001 aae

#21000
1aad
b1100 aaf

#22000
0aad
b1010 aae

#23000
1aad
b1101 aaf

#24000
0aad
b1011 aae

#25000
1aad
b1110 aaf

#26000
0aad
b1100 aae

#27000
1aad
b1111 aaf

#28000
0aad
b1101 aae

#29000
1aad
b10000 aaf

#30000
0aad
b1110 aae

#31000
1aad
b10001 aaf

#32000
0aad
b1111 aae

#33000
1aad
b10010 aaf

#34000
0aad
b10000 aae

#35000
1aad
b10011 aaf

#36000
0aad
b10001 aae

#37000
1aad
b10100 aaf

#38000
0aad
b10010 aae

#39000
1aad
b10101 aaf

#40000
0aad
b10011 aae

#41000
1aad
b10110 aaf

#42000
0aad
b10100 aae

#43000
1aad
b10111 aaf

#44000
0aad
b10101 aae

#45000
1aad
b11000 aaf

#46000
0aad
b10110 aae

#47000
1aad
b11001 aaf

#48000
0aad
b10111 aae

#49000
1aad
b11010 aaf

#50000
0aad
b11000 aae

#51000
1aad
b11011 aaf

#52000
0aad
b11001 aae

#53000
1aad
b11100 aaf

#54000
0aad
b11010 aae

#55000
1aad
b11101 aaf

#56000
0aad
b11011 aae

#57000
1aad
b11110 aaf

#58000
0aad
b11100 aae

#59000
1aad
b11111 aaf

#60000
0aad
b11101 aae

#61000
1aad
b100000 aaf

#62000
0aad
b11110 aae

#63000
1aad
b100001 aaf

#64000
0aad
b11111 aae

#65000
1aad
b100010 aaf

#66000
0aad
b100000 aae

#67000
1aad
b100011 aaf

#68000
0aad
b100001 aae

#69000
1aad
b100100 aaf

#70000
0aad
b100010 aae

#71000
1aad
b100101 aaf

#72000
0aad
b100011 aae

#73000
1aad
b100110 aaf

#74000
0aad
b100100 aae

#75000
1aad
b100111 aaf

#76000
0aad
b100101 aae

#77000
1aad
b101000 aaf

#78000
0aad
b100110 aae

#79000
1aad
b101001 aaf

#80000
0aad
b100111 aae

#81000
1aad
b101010 aaf

#82000
0aad
b101000 aae

#83000
1aad
b101011 aaf

#84000
0aad
b101001 aae

#85000
1aad
b101100 aaf

#86000
0aad
b101010 aae

#87000
1aad
b101101 aaf

#88000
0aad
b101011 aae

#89000
1aad
b101110 aaf

#90000
0aad
b101100 aae

#91000
1aad
b101111 aaf

#92000
0aad
b101101 aae

#93000
1aad
b110000 aaf

#94000
0aad
b101110 aae

#95000
1aad
b110001 aaf

#96000
0aad
b101111 aae

#97000
1aad
b110010 aaf

#98000
0aad
b110000 aae

#99000
1aad
b110011 aaf

#100000
0aad
b110001 aae

#101000
1aad
b110100 aaf

#102000
0aad
b110010 aae

#103000
1aad
b110101 aaf

#104000
0aad
b110011 aae

#105000
1aad
b110110 aaf

#106000
0aad
b110100 aae

#107000
1aad
b110111 aaf

#108000
0aad
b110101 aae

#109000
1aad
b111000 aaf

#110000
0aad
b110110 aae

#111000
1aad
b111001 aaf

#112000
0aad
b110111 aae

#113000
1aad
b111010 aaf

#114000
0aad
b111000 aae

#115000
1aad
b111011 aaf

#116000
0aad
b111001 aae

#117000
1aad
b111100 aaf

#118000
0aad
b111010 aae

#119000
1aad
b111101 aaf

#120000
0aad
b111011 aae

#121000
1aad
b111110 aaf

#122000
0aad
b111100 aae

#123000
1aad
b111111 aaf

#124000
0aad
b111101 aae

#125000
1aad
b1000000 aaf

#126000
0aad
b111110 aae

#127000
1aad
b1000001 aaf

#128000
0aad
b111111 aae

#129000
1aad
b1000010 aaf

#130000
0aad
b1000000 aae

#131000
1aad
b1000011 aaf

#132000
0aad
b1000001 aae

#133000
1aad
b1000100 aaf

#134000
0aad
b1000010 aae

#135000
1aad
b1000101 aaf

#136000
0aad
b1000011 aae

#137000
1aad
b1000110 aaf

#138000
0aad
b1000100 aae

#139000
1aad
b1000111 aaf

#140000
0aad
b1000101 aae

#141000
1aad
b1001000 aaf

#142000
0aad
b1000110 aae

#143000
1aad
b1001001 aaf

#144000
0aad
b1000111 aae

#145000
1aad
b1001010 aaf

#146000
0aad
b1001000 aae

#147000
1aad
b1001011 aaf

#148000
0aad
b1001001 aae

#149000
1aad
b1001100 aaf

#150000
0aad
b1001010 aae

#151000
1aad
b1001101 aaf

#152000
0aad
b1001011 aae

#153000
1aad
b1001110 aaf

#154000
0aad
b1001100 aae

#155000
1aad
b1001111 aaf

#156000
0aad
b1001101 aae

#157000
1aad
b1010000 aaf

#158000
0aad
b1001110 aae

#159000
1aad
b1010001 aaf

#160000
0aad
b1001111 aae

#161000
1aad
b1010010 aaf

#162000
0aad
b1010000 aae

#163000
1aad
b1010011 aaf

#164000
0aad
b1010001 aae

#165000
1aad
b1010100 aaf

#166000
0aad
b1010010 aae

#167000
1aad
b1010101 aaf

#168000
0aad
b1010011 aae

#169000
1aad
b1010110 aaf

#170000
0aad
b1010100 aae

#171000
1aad
b1010111 aaf

#172000
0aad
b1010101 aae

#173000
1aad
b1011000 aaf

#174000
0aad
b1010110 aae

#175000
1aad
b1011001 aaf

#176000
0aad
b1010111 aae

#177000
1aad
b1011010 aaf

#178000
0aad
b1011000 aae

#179000
1aad
b1011011 aaf

#180000
0aad
b1011001 aae

#181000
1aad
b1011100 aaf

#182000
0aad
b1011010 aae

#183000
1aad
b1011101 aaf

#184000
0aad
b1011011 aae

#185000
1aad
b1011110 aaf

#186000
0aad
b1011100 aae

#187000
1aad
b1011111 aaf

#188000
0aad
b1011101 aae

#189000
1aad
b1100000 aaf

#190000
0aad
b1011110 aae

#191000
1aad
b1100001 aaf

#192000
0aad
b1011111 aae

#193000
1aad
b1100010 aaf

#194000
0aad
b1100000 aae

#195000
1aad
b1100011 aaf

#196000
0aad
b1100001 aae

#197000
1aad
b1100100 aaf

#198000
0aad
b1100010 aae

#199000
1aad
b1100101 aaf

#200000
0aad
b1100011 aae

#201000
1aad
b1100110 aaf

#202000
0aad
b1100100 aae

#203000
1aad
b1100111 aaf

#204000
0aad
b1100101 aae

#205000
1aad
b1101000 aaf

#206000
0aad
b1100110 aae

#207000
1aad
b1101001 aaf

#208000
0aad
b1100111 aae

#209000
1aad
b1101010 aaf

#210000
0aad
b1101000 aae

#211000
1aad
b1101011 aaf

#212000
0aad
b1101001 aae

#213000
1aad
b1101100 aaf

#214000
0aad
b1101010 aae

#215000
1aad
b1101101 aaf

#216000
0aad
b1101011 aae

#217000
1aad
b1101110 aaf

#218000
0aad
b1101100 aae

#219000
1aad
b1101111 aaf

#220000
0aad
b1101101 aae

#221000
1aad
b1110000 aaf

#222000
0aad
b1101110 aae

#223000
1aad
b1110001 aaf

#224000
0aad
b1101111 aae

#225000
1aad
b1110010 aaf

#226000
0aad
b1110000 aae

#227000
1aad
b1110011 aaf

#228000
0aad
b1110001 aae

#229000
1aad
b1110100 aaf

#230000
0aad
b1110010 aae

#231000
1aad
b1110101 aaf

#232000
0aad
b1110011 aae

#233000
1aad
b1110110 aaf

#234000
0aad
b1110100 aae

#235000
1aad
b1110111 aaf

#236000
0aad
b1110101 aae

#237000
1aad
b1111000 aaf

#238000
0aad
b1110110 aae

#239000
1aad
b1111001 aaf

#240000
0aad
b1110111 aae

#241000
1aad
b1111010 aaf

#242000
0aad
b1111000 aae

#243000
1aad
b1111011 aaf

#244000
0aad
b1111001 aae

#245000
1aad
b1111100 aaf

#246000
0aad
b1111010 aae

#247000
1aad
b1111101 aaf

#248000
0aad
b1111011 aae

#249000
1aad
b1111110 aaf

#250000
0aad
b1111100 aae

#251000
1aad
b1111111 aaf

#252000
0aad
b1111101 aae

#253000
1aad
b10000000 aaf

#254000
0aad
b1111110 aae

#255000
1aad
b10000001 aaf

#256000
0aad
b1111111 aae

#257000
1aad
b10000010 aaf

#258000
0aad
b10000000 aae

#259000
1aad
b10000011 aaf

#260000
0aad
b10000001 aae

#261000
1aad
b10000100 aaf

#262000
0aad
b10000010 aae

#263000
1aad
b10000101 aaf

#264000
0aad
b10000011 aae

#265000
1aad
b10000110 aaf

#266000
0aad
b10000100 aae

#267000
1aad
b10000111 aaf

#268000
0aad
b10000101 aae

#269000
1aad
b10001000 aaf

#270000
0aad
b10000110 aae

#271000
1aad
b10001001 aaf

#272000
0aad
b10000111 aae

#273000
1aad
b10001010 aaf

#274000
0aad
b10001000 aae

#275000
1aad
b10001011 aaf

#276000
0aad
b10001001 aae

#277000
1aad
b10001100 aaf

#278000
0aad
b10001010 aae

#279000
1aad
b10001101 aaf

#280000
0aad
b10001011 aae

#281000
1aad
b10001110 aaf

#282000
0aad
b10001100 aae

#283000
1aad
b10001111 aaf

#284000
0aad
b10001101 aae

#285000
1aad
b10010000 aaf

#286000
0aad
b10001110 aae

#287000
1aad
b10010001 aaf

#288000
0aad
b10001111 aae

#289000
1aad
b10010010 aaf

#290000
0aad
b10010000 aae

#291000
1aad
b10010011 aaf

#292000
0aad
b10010001 aae

#293000
1aad
b10010100 aaf

#294000
0aad
b10010010 aae

#295000
1aad
b10010101 aaf

#296000
0aad
b10010011 aae

#297000
1aad
b10010110 aaf

#298000
0aad
b10010100 aae

#299000
1aad
b10010111 aaf

#300000
0aad
b10010101 aae

#301000
1aad
b10011000 aaf

#302000
0aad
b10010110 aae

#303000
1aad
b10011001 aaf

#304000
0aad
b10010111 aae

#305000
1aad
b10011010 aaf

#306000
0aad
b10011000 aae

#307000
1aad
b10011011 aaf

#308000
0aad
b10011001 aae

#309000
1aad
b10011100 aaf

#310000
0aad
b10011010 aae

#311000
1aad
b10011101 aaf

#312000
0aad
b10011011 aae

#313000
1aad
b10011110 aaf

#314000
0aad
b10011100 aae

#315000
1aad
b10011111 aaf

#316000
0aad
b10011101 aae

#317000
1aad
b10100000 aaf

#318000
0aad
b10011110 aae

#319000
1aad
b10100001 aaf

#320000
0aad
b10011111 aae

#321000
1aad
b10100010 aaf

#322000
0aad
b10100000 aae

#323000
1aad
b10100011 aaf

#324000
0aad
b10100001 aae

#325000
1aad
b10100100 aaf

#326000
0aad
b10100010 aae

#327000
1aad
b10100101 aaf

#328000
0aad
b10100011 aae

#329000
1aad
b10100110 aaf

#330000
0aad
b10100100 aae

#331000
1aad
b10100111 aaf

#332000
0aad
b10100101 aae

#333000
1aad
b10101000 aaf

#334000
0aad
b10100110 aae

#335000
1aad
b10101001 aaf

#336000
0aad
b10100111 aae

#337000
1aad
b10101010 aaf

#338000
0aad
b10101000 aae

#339000
1aad
b10101011 aaf

#340000
0aad
b10101001 aae

#341000
1aad
b10101100 aaf

#342000
0aad
b10101010 aae

#343000
1aad
b10101101 aaf

#344000
0aad
b10101011 aae

#345000
1aad
b10101110 aaf

#346000
0aad
b10101100 aae

#347000
1aad
b10101111 aaf

#348000
0aad
b10101101 aae

#349000
1aad
b10110000 aaf

#350000
0aad
b10101110 aae

#351000
1aad
b10110001 aaf

#352000
0aad
b10101111 aae

#353000
1aad
b10110010 aaf

#354000
0aad
b10110000 aae

#355000
1aad
b10110011 aaf

#356000
0aad
b10110001 aae

#357000
1aad
b10110100 aaf

#358000
0aad
b10110010 aae

#359000
1aad
b10110101 aaf

#360000
0aad
b10110011 aae

#361000
1aad
b10110110 aaf

#362000
0aad
b10110100 aae

#363000
1aad
b10110111 aaf

#364000
0aad
b10110101 aae

#365000
1aad
b10111000 aaf

#366000
0aad
b10110110 aae

#367000
1aad
b10111001 aaf

#368000
0aad
b10110111 aae

#369000
1aad
b10111010 aaf

#370000
0aad
b10111000 aae

#371000
1aad
b10111011 aaf

#372000
0aad
b10111001 aae

#373000
1aad
b10111100 aaf

#374000
0aad
b10111010 aae

#375000
1aad
b10111101 aaf

#376000
0aad
b10111011 aae

#377000
1aad
b10111110 aaf

#378000
0aad
b10111100 aae

#379000
1aad
b10111111 aaf

#380000
0aad
b10111101 aae

#381000
1aad
b11000000 aaf

#382000
0aad
b10111110 aae

#383000
1aad
b11000001 aaf

#384000
0aad
b10111111 aae

#385000
1aad
b11000010 aaf

#386000
0aad
b11000000 aae

#387000
1aad
b11000011 aaf

#388000
0aad
b11000001 aae

#389000
1aad
b11000100 aaf

#390000
0aad
b11000010 aae

#391000
1aad
b11000101 aaf

#392000
0aad
b11000011 aae

#393000
1aad
b11000110 aaf

#394000
0aad
b11000100 aae

#395000
1aad
b11000111 aaf

#396000
0aad
b11000101 aae

#397000
1aad
b11001000 aaf

#398000
0aad
b11000110 aae

#399000
1aad
b11001001 aaf

#400000
0aad
b11000111 aae

#401000
1aad
b11001010 aaf

#402000
0aad
b11001000 aae

#403000
1aad
b11001011 aaf

#404000
0aad
b11001001 aae

#405000
1aad
b11001100 aaf

#406000
0aad
b11001010 aae

#407000
1aad
b11001101 aaf

#408000
0aad
b11001011 aae

#409000
1aad
b11001110 aaf

#410000
0aad
b11001100 aae

#411000
1aad
b11001111 aaf

#412000
0aad
b11001101 aae

#413000
1aad
b11010000 aaf

#414000
0aad
b11001110 aae

#415000
1aad
b11010001 aaf

#416000
0aad
b11001111 aae

#417000
1aad
b11010010 aaf

#418000
0aad
b11010000 aae

#419000
1aad
b11010011 aaf

#420000
0aad
b11010001 aae

#421000
1aad
b11010100 aaf

#422000
0aad
b11010010 aae

#423000
1aad
b11010101 aaf

#424000
0aad
b11010011 aae

#425000
1aad
b11010110 aaf

#426000
0aad
b11010100 aae

#427000
1aad
b11010111 aaf

#428000
0aad
b11010101 aae

#429000
1aad
b11011000 aaf

#430000
0aad
b11010110 aae

#431000
1aad
b11011001 aaf

#432000
0aad
b11010111 aae

#433000
1aad
b11011010 aaf

#434000
0aad
b11011000 aae

#435000
1aad
b11011011 aaf

#436000
0aad
b11011001 aae

#437000
1aad
b11011100 aaf

#438000
0aad
b11011010 aae

#439000
1aad
b11011101 aaf

#440000
0aad
b11011011 aae

#441000
1aad
b11011110 aaf

#442000
0aad
b11011100 aae

#443000
1aad
b11011111 aaf

#444000
0aad
b11011101 aae

#445000
1aad
b11100000 aaf

#446000
0aad
b11011110 aae

#447000
1aad
b11100001 aaf

#448000
0aad
b11011111 aae

#449000
1aad
b11100010 aaf

#450000
0aad
b11100000 aae

#451000
1aad
b11100011 aaf

#452000
0aad
b11100001 aae

#453000
1aad
b11100100 aaf

#454000
0aad
b11100010 aae

#455000
1aad
b11100101 aaf

#456000
0aad
b11100011 aae

#457000
1aad
b11100110 aaf

#458000
0aad
b11100100 aae

#459000
1aad
b11100111 aaf

#460000
0aad
b11100101 aae

#461000
1aad
b11101000 aaf

#462000
0aad
b11100110 aae

#463000
1aad
b11101001 aaf

#464000
0aad
b11100111 aae

#465000
1aad
b11101010 aaf

#466000
0aad
b11101000 aae

#467000
1aad
b11101011 aaf

#468000
0aad
b11101001 aae

#469000
1aad
b11101100 aaf

#470000
0aad
b11101010 aae

#471000
1aad
b11101101 aaf

#472000
0aad
b11101011 aae

#473000
1aad
b11101110 aaf

#474000
0aad
b11101100 aae

#475000
1aad
b11101111 aaf

#476000
0aad
b11101101 aae

#477000
1aad
b11110000 aaf

#478000
0aad
b11101110 aae

#479000
1aad
b11110001 aaf

#480000
0aad
b11101111 aae

#481000
1aad
b11110010 aaf

#482000
0aad
b11110000 aae

#483000
1aad
b11110011 aaf

#484000
0aad
b11110001 aae

#485000
1aad
b11110100 aaf

#486000
0aad
b11110010 aae

#487000
1aad
b11110101 aaf

#488000
0aad
b11110011 aae

#489000
1aad
b11110110 aaf

#490000
0aad
b11110100 aae

#491000
1aad
b11110111 aaf

#492000
0aad
b11110101 aae

#493000
1aad
b11111000 aaf

#494000
0aad
b11110110 aae

#495000
1aad
b11111001 aaf

#496000
0aad
b11110111 aae

#497000
1aad
b11111010 aaf

#498000
0aad
b11111000 aae

#499000
1aad
b11111011 aaf

#500000
0aad
b11111001 aae

#501000
1aad
b11111100 aaf

#502000
0aad
b11111010 aae

#503000
1aad
b11111101 aaf

#504000
b11111011 aae

#505000
1aac

