src/MultiplyAndAccumulate/mult_accumulate.vcd
$date
     Apr 02, 2020       17:12:37
$end

$version
              SystemC 2.3.0_pub_rev_20111121-OSCI --- Mar 13 2020 11:21:03
$end

$timescale
     1 ps
$end

$scope module SystemC $end
$var wire    1  aaa  enable       $end
$var wire    8  aab  pixel [7:0]  $end
$var wire    1  aac  reset       $end
$var wire    1  aad  clk       $end
$var wire    8  aae  partials [7:0]  $end
$var wire    8  aaf  output [7:0]  $end
$var wire    8  aag  out_test [7:0]  $end
$upscope $end
$enddefinitions  $end

$comment
All initial values are dumped below at time 0 sec = 0 timescale units.
$end

$dumpvars
1aaa
b1 aab
0aac
0aad
b0 aae
b0 aaf
b0 aag
$end

#1000
1aad
b11 aaf
b11 aag

#2000
0aad
b1 aae

#3000
1aad
b100 aaf
b100 aag

#4000
0aad
b10 aae

#5000
1aad
b101 aaf
b101 aag

#6000
0aad
b11 aae

#7000
1aad
b110 aaf
b110 aag

#8000
0aad
b100 aae

#9000
1aad
b111 aaf
b111 aag

#10000
0aad
b101 aae

#11000
1aad
b1000 aaf
b1000 aag

#12000
0aad
b110 aae

#13000
1aad
b1001 aaf
b1001 aag

#14000
0aad
b111 aae

#15000
1aad
b1010 aaf
b1010 aag

#16000
0aad
b1000 aae

#17000
1aad
b1011 aaf
b1011 aag

#18000
0aad
b1001 aae

#19000
1aad
b1100 aaf
b1100 aag

#20000
0aad
b1010 aae

#21000
1aad
b1101 aaf
b1101 aag

#22000
0aad
b1011 aae

#23000
1aad
b1110 aaf
b1110 aag

#24000
0aad
b1100 aae

#25000
1aad
b1111 aaf
b1111 aag

#26000
0aad
b1101 aae

#27000
1aad
b10000 aaf
b10000 aag

#28000
0aad
b1110 aae

#29000
1aad
b10001 aaf
b10001 aag

#30000
0aad
b1111 aae

#31000
1aad
b10010 aaf
b10010 aag

#32000
0aad
b10000 aae

#33000
1aad
b10011 aaf
b10011 aag

#34000
0aad
b10001 aae

#35000
1aad
b10100 aaf
b10100 aag

#36000
0aad
b10010 aae

#37000
1aad
b10101 aaf
b10101 aag

#38000
0aad
b10011 aae

#39000
1aad
b10110 aaf
b10110 aag

#40000
0aad
b10100 aae

#41000
1aad
b10111 aaf
b10111 aag

#42000
0aad
b10101 aae

#43000
1aad
b11000 aaf
b11000 aag

#44000
0aad
b10110 aae

#45000
1aad
b11001 aaf
b11001 aag

#46000
0aad
b10111 aae

#47000
1aad
b11010 aaf
b11010 aag

#48000
0aad
b11000 aae

#49000
1aad
b11011 aaf
b11011 aag

#50000
0aad
b11001 aae

#51000
1aad
b11100 aaf
b11100 aag

#52000
0aad
b11010 aae

#53000
1aad
b11101 aaf
b11101 aag

#54000
0aad
b11011 aae

#55000
1aad
b11110 aaf
b11110 aag

#56000
0aad
b11100 aae

#57000
1aad
b11111 aaf
b11111 aag

#58000
0aad
b11101 aae

#59000
1aad
b100000 aaf
b100000 aag

#60000
0aad
b11110 aae

#61000
1aad
b100001 aaf
b100001 aag

#62000
0aad
b11111 aae

#63000
1aad
b100010 aaf
b100010 aag

#64000
0aad
b100000 aae

#65000
1aad
b100011 aaf
b100011 aag

#66000
0aad
b100001 aae

#67000
1aad
b100100 aaf
b100100 aag

#68000
0aad
b100010 aae

#69000
1aad
b100101 aaf
b100101 aag

#70000
0aad
b100011 aae

#71000
1aad
b100110 aaf
b100110 aag

#72000
0aad
b100100 aae

#73000
1aad
b100111 aaf
b100111 aag

#74000
0aad
b100101 aae

#75000
1aad
b101000 aaf
b101000 aag

#76000
0aad
b100110 aae

#77000
1aad
b101001 aaf
b101001 aag

#78000
0aad
b100111 aae

#79000
1aad
b101010 aaf
b101010 aag

#80000
0aad
b101000 aae

#81000
1aad
b101011 aaf
b101011 aag

#82000
0aad
b101001 aae

#83000
1aad
b101100 aaf
b101100 aag

#84000
0aad
b101010 aae

#85000
1aad
b101101 aaf
b101101 aag

#86000
0aad
b101011 aae

#87000
1aad
b101110 aaf
b101110 aag

#88000
0aad
b101100 aae

#89000
1aad
b101111 aaf
b101111 aag

#90000
0aad
b101101 aae

#91000
1aad
b110000 aaf
b110000 aag

#92000
0aad
b101110 aae

#93000
1aad
b110001 aaf
b110001 aag

#94000
0aad
b101111 aae

#95000
1aad
b110010 aaf
b110010 aag

#96000
0aad
b110000 aae

#97000
1aad
b110011 aaf
b110011 aag

#98000
0aad
b110001 aae

#99000
1aad
b110100 aaf
b110100 aag

#100000
0aad
b110010 aae

#101000
1aad
b110101 aaf
b110101 aag

#102000
0aad
b110011 aae

#103000
1aad
b110110 aaf
b110110 aag

#104000
0aad
b110100 aae

#105000
1aad
b110111 aaf
b110111 aag

#106000
0aad
b110101 aae

#107000
1aad
b111000 aaf
b111000 aag

#108000
0aad
b110110 aae

#109000
1aad
b111001 aaf
b111001 aag

#110000
0aad
b110111 aae

#111000
1aad
b111010 aaf
b111010 aag

#112000
0aad
b111000 aae

#113000
1aad
b111011 aaf
b111011 aag

#114000
0aad
b111001 aae

#115000
1aad
b111100 aaf
b111100 aag

#116000
0aad
b111010 aae

#117000
1aad
b111101 aaf
b111101 aag

#118000
0aad
b111011 aae

#119000
1aad
b111110 aaf
b111110 aag

#120000
0aad
b111100 aae

#121000
1aad
b111111 aaf
b111111 aag

#122000
0aad
b111101 aae

#123000
1aad
b1000000 aaf
b1000000 aag

#124000
0aad
b111110 aae

#125000
1aad
b1000001 aaf
b1000001 aag

#126000
0aad
b111111 aae

#127000
1aad
b1000010 aaf
b1000010 aag

#128000
0aad
b1000000 aae

#129000
1aad
b1000011 aaf
b1000011 aag

#130000
0aad
b1000001 aae

#131000
1aad
b1000100 aaf
b1000100 aag

#132000
0aad
b1000010 aae

#133000
1aad
b1000101 aaf
b1000101 aag

#134000
0aad
b1000011 aae

#135000
1aad
b1000110 aaf
b1000110 aag

#136000
0aad
b1000100 aae

#137000
1aad
b1000111 aaf
b1000111 aag

#138000
0aad
b1000101 aae

#139000
1aad
b1001000 aaf
b1001000 aag

#140000
0aad
b1000110 aae

#141000
1aad
b1001001 aaf
b1001001 aag

#142000
0aad
b1000111 aae

#143000
1aad
b1001010 aaf
b1001010 aag

#144000
0aad
b1001000 aae

#145000
1aad
b1001011 aaf
b1001011 aag

#146000
0aad
b1001001 aae

#147000
1aad
b1001100 aaf
b1001100 aag

#148000
0aad
b1001010 aae

#149000
1aad
b1001101 aaf
b1001101 aag

#150000
0aad
b1001011 aae

#151000
1aad
b1001110 aaf
b1001110 aag

#152000
0aad
b1001100 aae

#153000
1aad
b1001111 aaf
b1001111 aag

#154000
0aad
b1001101 aae

#155000
1aad
b1010000 aaf
b1010000 aag

#156000
0aad
b1001110 aae

#157000
1aad
b1010001 aaf
b1010001 aag

#158000
0aad
b1001111 aae

#159000
1aad
b1010010 aaf
b1010010 aag

#160000
0aad
b1010000 aae

#161000
1aad
b1010011 aaf
b1010011 aag

#162000
0aad
b1010001 aae

#163000
1aad
b1010100 aaf
b1010100 aag

#164000
0aad
b1010010 aae

#165000
1aad
b1010101 aaf
b1010101 aag

#166000
0aad
b1010011 aae

#167000
1aad
b1010110 aaf
b1010110 aag

#168000
0aad
b1010100 aae

#169000
1aad
b1010111 aaf
b1010111 aag

#170000
0aad
b1010101 aae

#171000
1aad
b1011000 aaf
b1011000 aag

#172000
0aad
b1010110 aae

#173000
1aad
b1011001 aaf
b1011001 aag

#174000
0aad
b1010111 aae

#175000
1aad
b1011010 aaf
b1011010 aag

#176000
0aad
b1011000 aae

#177000
1aad
b1011011 aaf
b1011011 aag

#178000
0aad
b1011001 aae

#179000
1aad
b1011100 aaf
b1011100 aag

#180000
0aad
b1011010 aae

#181000
1aad
b1011101 aaf
b1011101 aag

#182000
0aad
b1011011 aae

#183000
1aad
b1011110 aaf
b1011110 aag

#184000
0aad
b1011100 aae

#185000
1aad
b1011111 aaf
b1011111 aag

#186000
0aad
b1011101 aae

#187000
1aad
b1100000 aaf
b1100000 aag

#188000
0aad
b1011110 aae

#189000
1aad
b1100001 aaf
b1100001 aag

#190000
0aad
b1011111 aae

#191000
1aad
b1100010 aaf
b1100010 aag

#192000
0aad
b1100000 aae

#193000
1aad
b1100011 aaf
b1100011 aag

#194000
0aad
b1100001 aae

#195000
1aad
b1100100 aaf
b1100100 aag

#196000
0aad
b1100010 aae

#197000
1aad
b1100101 aaf
b1100101 aag

#198000
0aad
b1100011 aae

#199000
1aad
b1100110 aaf
b1100110 aag

#200000
0aad
b1100100 aae

#201000
1aad
b1100111 aaf
b1100111 aag

#202000
0aad
b1100101 aae

#203000
1aad
b1101000 aaf
b1101000 aag

#204000
0aad
b1100110 aae

#205000
1aad
b1101001 aaf
b1101001 aag

#206000
0aad
b1100111 aae

#207000
1aad
b1101010 aaf
b1101010 aag

#208000
0aad
b1101000 aae

#209000
1aad
b1101011 aaf
b1101011 aag

#210000
0aad
b1101001 aae

#211000
1aad
b1101100 aaf
b1101100 aag

#212000
0aad
b1101010 aae

#213000
1aad
b1101101 aaf
b1101101 aag

#214000
0aad
b1101011 aae

#215000
1aad
b1101110 aaf
b1101110 aag

#216000
0aad
b1101100 aae

#217000
1aad
b1101111 aaf
b1101111 aag

#218000
0aad
b1101101 aae

#219000
1aad
b1110000 aaf
b1110000 aag

#220000
0aad
b1101110 aae

#221000
1aad
b1110001 aaf
b1110001 aag

#222000
0aad
b1101111 aae

#223000
1aad
b1110010 aaf
b1110010 aag

#224000
0aad
b1110000 aae

#225000
1aad
b1110011 aaf
b1110011 aag

#226000
0aad
b1110001 aae

#227000
1aad
b1110100 aaf
b1110100 aag

#228000
0aad
b1110010 aae

#229000
1aad
b1110101 aaf
b1110101 aag

#230000
0aad
b1110011 aae

#231000
1aad
b1110110 aaf
b1110110 aag

#232000
0aad
b1110100 aae

#233000
1aad
b1110111 aaf
b1110111 aag

#234000
0aad
b1110101 aae

#235000
1aad
b1111000 aaf
b1111000 aag

#236000
0aad
b1110110 aae

#237000
1aad
b1111001 aaf
b1111001 aag

#238000
0aad
b1110111 aae

#239000
1aad
b1111010 aaf
b1111010 aag

#240000
0aad
b1111000 aae

#241000
1aad
b1111011 aaf
b1111011 aag

#242000
0aad
b1111001 aae

#243000
1aad
b1111100 aaf
b1111100 aag

#244000
0aad
b1111010 aae

#245000
1aad
b1111101 aaf
b1111101 aag

#246000
0aad
b1111011 aae

#247000
1aad
b1111110 aaf
b1111110 aag

#248000
0aad
b1111100 aae

#249000
1aad
b1111111 aaf
b1111111 aag

#250000
0aad
b1111101 aae

#251000
1aad
b10000000 aaf
b10000000 aag

#252000
0aad
b1111110 aae

#253000
1aad
b10000001 aaf
b10000001 aag

#254000
0aad
b1111111 aae

#255000
1aad
b10000010 aaf
b10000010 aag

#256000
0aad
b10000000 aae

#257000
1aad
b10000011 aaf
b10000011 aag

#258000
0aad
b10000001 aae

#259000
1aad
b10000100 aaf
b10000100 aag

#260000
0aad
b10000010 aae

#261000
1aad
b10000101 aaf
b10000101 aag

#262000
0aad
b10000011 aae

#263000
1aad
b10000110 aaf
b10000110 aag

#264000
0aad
b10000100 aae

#265000
1aad
b10000111 aaf
b10000111 aag

#266000
0aad
b10000101 aae

#267000
1aad
b10001000 aaf
b10001000 aag

#268000
0aad
b10000110 aae

#269000
1aad
b10001001 aaf
b10001001 aag

#270000
0aad
b10000111 aae

#271000
1aad
b10001010 aaf
b10001010 aag

#272000
0aad
b10001000 aae

#273000
1aad
b10001011 aaf
b10001011 aag

#274000
0aad
b10001001 aae

#275000
1aad
b10001100 aaf
b10001100 aag

#276000
0aad
b10001010 aae

#277000
1aad
b10001101 aaf
b10001101 aag

#278000
0aad
b10001011 aae

#279000
1aad
b10001110 aaf
b10001110 aag

#280000
0aad
b10001100 aae

#281000
1aad
b10001111 aaf
b10001111 aag

#282000
0aad
b10001101 aae

#283000
1aad
b10010000 aaf
b10010000 aag

#284000
0aad
b10001110 aae

#285000
1aad
b10010001 aaf
b10010001 aag

#286000
0aad
b10001111 aae

#287000
1aad
b10010010 aaf
b10010010 aag

#288000
0aad
b10010000 aae

#289000
1aad
b10010011 aaf
b10010011 aag

#290000
0aad
b10010001 aae

#291000
1aad
b10010100 aaf
b10010100 aag

#292000
0aad
b10010010 aae

#293000
1aad
b10010101 aaf
b10010101 aag

#294000
0aad
b10010011 aae

#295000
1aad
b10010110 aaf
b10010110 aag

#296000
0aad
b10010100 aae

#297000
1aad
b10010111 aaf
b10010111 aag

#298000
0aad
b10010101 aae

#299000
1aad
b10011000 aaf
b10011000 aag

#300000
0aad
b10010110 aae

#301000
1aad
b10011001 aaf
b10011001 aag

#302000
0aad
b10010111 aae

#303000
1aad
b10011010 aaf
b10011010 aag

#304000
0aad
b10011000 aae

#305000
1aad
b10011011 aaf
b10011011 aag

#306000
0aad
b10011001 aae

#307000
1aad
b10011100 aaf
b10011100 aag

#308000
0aad
b10011010 aae

#309000
1aad
b10011101 aaf
b10011101 aag

#310000
0aad
b10011011 aae

#311000
1aad
b10011110 aaf
b10011110 aag

#312000
0aad
b10011100 aae

#313000
1aad
b10011111 aaf
b10011111 aag

#314000
0aad
b10011101 aae

#315000
1aad
b10100000 aaf
b10100000 aag

#316000
0aad
b10011110 aae

#317000
1aad
b10100001 aaf
b10100001 aag

#318000
0aad
b10011111 aae

#319000
1aad
b10100010 aaf
b10100010 aag

#320000
0aad
b10100000 aae

#321000
1aad
b10100011 aaf
b10100011 aag

#322000
0aad
b10100001 aae

#323000
1aad
b10100100 aaf
b10100100 aag

#324000
0aad
b10100010 aae

#325000
1aad
b10100101 aaf
b10100101 aag

#326000
0aad
b10100011 aae

#327000
1aad
b10100110 aaf
b10100110 aag

#328000
0aad
b10100100 aae

#329000
1aad
b10100111 aaf
b10100111 aag

#330000
0aad
b10100101 aae

#331000
1aad
b10101000 aaf
b10101000 aag

#332000
0aad
b10100110 aae

#333000
1aad
b10101001 aaf
b10101001 aag

#334000
0aad
b10100111 aae

#335000
1aad
b10101010 aaf
b10101010 aag

#336000
0aad
b10101000 aae

#337000
1aad
b10101011 aaf
b10101011 aag

#338000
0aad
b10101001 aae

#339000
1aad
b10101100 aaf
b10101100 aag

#340000
0aad
b10101010 aae

#341000
1aad
b10101101 aaf
b10101101 aag

#342000
0aad
b10101011 aae

#343000
1aad
b10101110 aaf
b10101110 aag

#344000
0aad
b10101100 aae

#345000
1aad
b10101111 aaf
b10101111 aag

#346000
0aad
b10101101 aae

#347000
1aad
b10110000 aaf
b10110000 aag

#348000
0aad
b10101110 aae

#349000
1aad
b10110001 aaf
b10110001 aag

#350000
0aad
b10101111 aae

#351000
1aad
b10110010 aaf
b10110010 aag

#352000
0aad
b10110000 aae

#353000
1aad
b10110011 aaf
b10110011 aag

#354000
0aad
b10110001 aae

#355000
1aad
b10110100 aaf
b10110100 aag

#356000
0aad
b10110010 aae

#357000
1aad
b10110101 aaf
b10110101 aag

#358000
0aad
b10110011 aae

#359000
1aad
b10110110 aaf
b10110110 aag

#360000
0aad
b10110100 aae

#361000
1aad
b10110111 aaf
b10110111 aag

#362000
0aad
b10110101 aae

#363000
1aad
b10111000 aaf
b10111000 aag

#364000
0aad
b10110110 aae

#365000
1aad
b10111001 aaf
b10111001 aag

#366000
0aad
b10110111 aae

#367000
1aad
b10111010 aaf
b10111010 aag

#368000
0aad
b10111000 aae

#369000
1aad
b10111011 aaf
b10111011 aag

#370000
0aad
b10111001 aae

#371000
1aad
b10111100 aaf
b10111100 aag

#372000
0aad
b10111010 aae

#373000
1aad
b10111101 aaf
b10111101 aag

#374000
0aad
b10111011 aae

#375000
1aad
b10111110 aaf
b10111110 aag

#376000
0aad
b10111100 aae

#377000
1aad
b10111111 aaf
b10111111 aag

#378000
0aad
b10111101 aae

#379000
1aad
b11000000 aaf
b11000000 aag

#380000
0aad
b10111110 aae

#381000
1aad
b11000001 aaf
b11000001 aag

#382000
0aad
b10111111 aae

#383000
1aad
b11000010 aaf
b11000010 aag

#384000
0aad
b11000000 aae

#385000
1aad
b11000011 aaf
b11000011 aag

#386000
0aad
b11000001 aae

#387000
1aad
b11000100 aaf
b11000100 aag

#388000
0aad
b11000010 aae

#389000
1aad
b11000101 aaf
b11000101 aag

#390000
0aad
b11000011 aae

#391000
1aad
b11000110 aaf
b11000110 aag

#392000
0aad
b11000100 aae

#393000
1aad
b11000111 aaf
b11000111 aag

#394000
0aad
b11000101 aae

#395000
1aad
b11001000 aaf
b11001000 aag

#396000
0aad
b11000110 aae

#397000
1aad
b11001001 aaf
b11001001 aag

#398000
0aad
b11000111 aae

#399000
1aad
b11001010 aaf
b11001010 aag

#400000
0aad
b11001000 aae

#401000
1aad
b11001011 aaf
b11001011 aag

#402000
0aad
b11001001 aae

#403000
1aad
b11001100 aaf
b11001100 aag

#404000
0aad
b11001010 aae

#405000
1aad
b11001101 aaf
b11001101 aag

#406000
0aad
b11001011 aae

#407000
1aad
b11001110 aaf
b11001110 aag

#408000
0aad
b11001100 aae

#409000
1aad
b11001111 aaf
b11001111 aag

#410000
0aad
b11001101 aae

#411000
1aad
b11010000 aaf
b11010000 aag

#412000
0aad
b11001110 aae

#413000
1aad
b11010001 aaf
b11010001 aag

#414000
0aad
b11001111 aae

#415000
1aad
b11010010 aaf
b11010010 aag

#416000
0aad
b11010000 aae

#417000
1aad
b11010011 aaf
b11010011 aag

#418000
0aad
b11010001 aae

#419000
1aad
b11010100 aaf
b11010100 aag

#420000
0aad
b11010010 aae

#421000
1aad
b11010101 aaf
b11010101 aag

#422000
0aad
b11010011 aae

#423000
1aad
b11010110 aaf
b11010110 aag

#424000
0aad
b11010100 aae

#425000
1aad
b11010111 aaf
b11010111 aag

#426000
0aad
b11010101 aae

#427000
1aad
b11011000 aaf
b11011000 aag

#428000
0aad
b11010110 aae

#429000
1aad
b11011001 aaf
b11011001 aag

#430000
0aad
b11010111 aae

#431000
1aad
b11011010 aaf
b11011010 aag

#432000
0aad
b11011000 aae

#433000
1aad
b11011011 aaf
b11011011 aag

#434000
0aad
b11011001 aae

#435000
1aad
b11011100 aaf
b11011100 aag

#436000
0aad
b11011010 aae

#437000
1aad
b11011101 aaf
b11011101 aag

#438000
0aad
b11011011 aae

#439000
1aad
b11011110 aaf
b11011110 aag

#440000
0aad
b11011100 aae

#441000
1aad
b11011111 aaf
b11011111 aag

#442000
0aad
b11011101 aae

#443000
1aad
b11100000 aaf
b11100000 aag

#444000
0aad
b11011110 aae

#445000
1aad
b11100001 aaf
b11100001 aag

#446000
0aad
b11011111 aae

#447000
1aad
b11100010 aaf
b11100010 aag

#448000
0aad
b11100000 aae

#449000
1aad
b11100011 aaf
b11100011 aag

#450000
0aad
b11100001 aae

#451000
1aad
b11100100 aaf
b11100100 aag

#452000
0aad
b11100010 aae

#453000
1aad
b11100101 aaf
b11100101 aag

#454000
0aad
b11100011 aae

#455000
1aad
b11100110 aaf
b11100110 aag

#456000
0aad
b11100100 aae

#457000
1aad
b11100111 aaf
b11100111 aag

#458000
0aad
b11100101 aae

#459000
1aad
b11101000 aaf
b11101000 aag

#460000
0aad
b11100110 aae

#461000
1aad
b11101001 aaf
b11101001 aag

#462000
0aad
b11100111 aae

#463000
1aad
b11101010 aaf
b11101010 aag

#464000
0aad
b11101000 aae

#465000
1aad
b11101011 aaf
b11101011 aag

#466000
0aad
b11101001 aae

#467000
1aad
b11101100 aaf
b11101100 aag

#468000
0aad
b11101010 aae

#469000
1aad
b11101101 aaf
b11101101 aag

#470000
0aad
b11101011 aae

#471000
1aad
b11101110 aaf
b11101110 aag

#472000
0aad
b11101100 aae

#473000
1aad
b11101111 aaf
b11101111 aag

#474000
0aad
b11101101 aae

#475000
1aad
b11110000 aaf
b11110000 aag

#476000
0aad
b11101110 aae

#477000
1aad
b11110001 aaf
b11110001 aag

#478000
0aad
b11101111 aae

#479000
1aad
b11110010 aaf
b11110010 aag

#480000
0aad
b11110000 aae

#481000
1aad
b11110011 aaf
b11110011 aag

#482000
0aad
b11110001 aae

#483000
1aad
b11110100 aaf
b11110100 aag

#484000
0aad
b11110010 aae

#485000
1aad
b11110101 aaf
b11110101 aag

#486000
0aad
b11110011 aae

#487000
1aad
b11110110 aaf
b11110110 aag

#488000
0aad
b11110100 aae

#489000
1aad
b11110111 aaf
b11110111 aag

#490000
0aad
b11110101 aae

#491000
1aad
b11111000 aaf
b11111000 aag

#492000
0aad
b11110110 aae

#493000
1aad
b11111001 aaf
b11111001 aag

#494000
0aad
b11110111 aae

#495000
1aad
b11111010 aaf
b11111010 aag

#496000
0aad
b11111000 aae

#497000
1aad
b11111011 aaf
b11111011 aag

#498000
0aad
b11111001 aae

#499000
1aad
b11111100 aaf
b11111100 aag

#500000
0aad
b11111010 aae

#501000
1aad
b11111101 aaf
b11111101 aag

#502000
0aad
b11111011 aae

#503000
1aad
b11111110 aaf
b11111110 aag

#504000
0aad

#505000
1aac
1aad
b0 aaf

