src/traces/sim_signals.trace.vcd
$date
     Apr 10, 2020       12:24:00
$end

$version
              SystemC 2.3.0_pub_rev_20111121-OSCI --- Nov 24 2019 16:06:02
$end

$timescale
     1 ps
$end

$scope module SystemC $end
$var wire    1  aaa  clock       $end
$var real    1  aab  stream       $end
$var wire    1  aac  reset       $end
$var wire    1  aad  enable       $end
$upscope $end
$enddefinitions  $end

$comment
All initial values are dumped below at time 0 sec = 0 timescale units.
$end

$dumpvars
0aaa
r0 aab
0aac
0aad
$end

#1000
1aac
1aad

#7000
0aac

#9000
r1 aab

#11000
r2 aab

#23000
r10 aab

#25000
r20 aab

#27000
r89 aab

#29000
r90 aab

#31000
r91 aab

#33000
r92 aab

#35000
r93 aab

#37000
r94 aab

#39000
r95 aab

#41000
r96 aab

#43000
r97 aab

#45000
r98 aab

#47000
r99 aab

#49000
0aad

#50000
1aac
1aad

#56000
0aac

#58000
r98 aab

#60000
r97 aab

#62000
r99 aab

#64000
r98 aab

#66000
r97 aab

#68000
r96 aab

#70000
r95 aab

#72000
r99 aab

#74000
r98 aab

#76000
r99 aab

#78000
r98 aab

#80000
r97 aab

#82000
r96 aab

#84000
r95 aab

#86000
r94 aab

#88000
r93 aab

#90000
r92 aab

#92000
r91 aab

#94000
r90 aab

#96000
r89 aab

#99500
1aac

